% $ biblatex auxiliary file $
% $ biblatex bbl format version 2.6 $
% Do not modify the above lines!
%
% This is an auxiliary file used by the 'biblatex' package.
% This file may safely be deleted. It will be recreated by
% biber as required.
%
\begingroup
\makeatletter
\@ifundefined{ver@biblatex.sty}
  {\@latex@error
     {Missing 'biblatex' package}
     {The bibliography requires the 'biblatex' package.}
      \aftergroup\endinput}
  {}
\endgroup


\refsection{0}
  \sortlist[entry]{nty/global}
    \entry{MechPropertiesAcharai}{article}{}
      \name{author}{2}{}{%
        {{hash=c3488b7f91a315a33e5985c174c1871f}{%
           family={Achrai},
           family_i={A\bibinitperiod},
           given={Ben},
           given_i={B\bibinitperiod}}}%
        {{hash=64ea010a43a332ac8083ef829993ab14}{%
           family={Wagner},
           family_i={W\bibinitperiod},
           given={H.\bibnamedelimi Daniel},
           given_i={H\bibinitperiod\bibinitdelim D\bibinitperiod}}}%
      }
      \strng{namehash}{4919000a034853217c88da40092aa779}
      \strng{fullhash}{4919000a034853217c88da40092aa779}
      \field{sortinit}{A}
      \field{sortinithash}{b685c7856330eaee22789815b49de9bb}
      \field{labelnamesource}{author}
      \field{labeltitlesource}{title}
      \field{issn}{1742-7061}
      \field{journaltitle}{Acta Biomaterialia}
      \field{number}{4}
      \field{title}{Micro-structure and mechanical properties of the turtle carapace as a biological composite shield}
      \field{volume}{9}
      \field{year}{2013}
      \field{pages}{5890\bibrangedash 5902}
      \range{pages}{13}
      \verb{doi}
      \verb https://doi.org/10.1016/j.actbio.2012.12.023
      \endverb
      \verb{url}
      \verb http://www.sciencedirect.com/science/article/pii/S1742706112006150
      \endverb
      \keyw{Turtle carapace,Biological composites,Hierarchical structure,Mechanical properties,Nanoindentation}
    \endentry
    \entry{Bone_ashman}{article}{}
      \name{author}{4}{}{%
        {{hash=8628af0eeb4a57309664ad9652ba3681}{%
           family={Ashman},
           family_i={A\bibinitperiod},
           given={R.B.},
           given_i={R\bibinitperiod}}}%
        {{hash=e1910e1d99171b3dda79cad38018b648}{%
           family={Cowin},
           family_i={C\bibinitperiod},
           given={S.C.},
           given_i={S\bibinitperiod}}}%
        {{hash=17b70148f21c759dfc890d99e76a5e41}{%
           family={Van\bibnamedelima Buskirk},
           family_i={V\bibinitperiod\bibinitdelim B\bibinitperiod},
           given={W.C.},
           given_i={W\bibinitperiod}}}%
        {{hash=81d2c4da9254ae947682ed7638b4d82f}{%
           family={Rice},
           family_i={R\bibinitperiod},
           given={J.C.},
           given_i={J\bibinitperiod}}}%
      }
      \list{language}{1}{%
        {eng}%
      }
      \list{publisher}{1}{%
        {Elsevier Ltd}%
      }
      \strng{namehash}{9d48b67dc9f92fabe13b4f9e7c2ebf94}
      \strng{fullhash}{0a89ff65c038cb14d7bd1e5df505269b}
      \field{sortinit}{A}
      \field{sortinithash}{b685c7856330eaee22789815b49de9bb}
      \field{labelnamesource}{author}
      \field{labeltitlesource}{title}
      \field{issn}{0021-9290}
      \field{journaltitle}{Journal of Biomechanics}
      \field{number}{5}
      \field{title}{A continuous wave technique for the measurement of the elastic properties of cortical bone}
      \field{volume}{17}
      \field{year}{1984}
      \field{pages}{349\bibrangessep 361}
      \range{pages}{2}
      \keyw{Bone and Bones -- Analysis;}
    \endentry
    \entry{keratinProp}{article}{}
      \name{author}{6}{}{%
        {{hash=6aca2ffa5e5f9810d22d29d382944ae5}{%
           family={Chen},
           family_i={C\bibinitperiod},
           given={Meiling},
           given_i={M\bibinitperiod}}}%
        {{hash=b28efe17b9c149afdc0f6d1f4df7e1e0}{%
           family={Hu},
           family_i={H\bibinitperiod},
           given={Narisu},
           given_i={N\bibinitperiod}}}%
        {{hash=780f7ebe313998a36e7eba7193d50487}{%
           family={Zhou},
           family_i={Z\bibinitperiod},
           given={Chang},
           given_i={C\bibinitperiod}}}%
        {{hash=5c9681b7bdbf9f40aea8595441fd0d18}{%
           family={Lin},
           family_i={L\bibinitperiod},
           given={Xiankun},
           given_i={X\bibinitperiod}}}%
        {{hash=c62eb44c432ce3fe7311307383d49760}{%
           family={Xie},
           family_i={X\bibinitperiod},
           given={Hui},
           given_i={H\bibinitperiod}}}%
        {{hash=a2b28ed649a92db07015da432a5f8c0b}{%
           family={He},
           family_i={H\bibinitperiod},
           given={Qiang},
           given_i={Q\bibinitperiod}}}%
      }
      \strng{namehash}{a56a5cc3d780ba02514baaf6fb1f1fda}
      \strng{fullhash}{804496fceba7f5d80a2b6ee2150f1ec3}
      \field{sortinit}{C}
      \field{sortinithash}{59f25d509f3381b07695554a9f35ecb2}
      \field{labelnamesource}{author}
      \field{labeltitlesource}{title}
      \field{issn}{0927-7757}
      \field{journaltitle}{Colloids and Surfaces A: Physicochemical and Engineering Aspects}
      \field{title}{The hierarchical structure and mechanical performance of a natural nanocomposite material: The turtle shell}
      \field{volume}{520}
      \field{year}{2017}
      \field{pages}{97\bibrangedash 104}
      \range{pages}{8}
      \verb{doi}
      \verb https://doi.org/10.1016/j.colsurfa.2017.01.063
      \endverb
      \verb{url}
      \verb http://www.sciencedirect.com/science/article/pii/S0927775717300997
      \endverb
      \keyw{Turtle shell,Hierarchical structure,Mechanical properties,Keratin,Biomineralization}
    \endentry
    \entry{bones_structure}{book}{}
      \name{author}{1}{}{%
        {{hash=62ac33d8401a541de72af9ae09fb9353}{%
           family={Currey},
           family_i={C\bibinitperiod},
           given={John\bibnamedelima D.},
           given_i={J\bibinitperiod\bibinitdelim D\bibinitperiod}}}%
      }
      \strng{namehash}{62ac33d8401a541de72af9ae09fb9353}
      \strng{fullhash}{62ac33d8401a541de72af9ae09fb9353}
      \field{sortinit}{C}
      \field{sortinithash}{59f25d509f3381b07695554a9f35ecb2}
      \field{labelnamesource}{author}
      \field{labeltitlesource}{title}
      \field{title}{Bones: structure and mechanics}
      \field{year}{2006}
    \endentry
    \entry{Scutes}{article}{}
      \name{author}{10}{}{%
        {{hash=5a7164070af77a123bdfbd9bf2babc27}{%
           family={Moustakas-Verho},
           family_i={M\bibinithyphendelim V\bibinitperiod},
           given={Jacqueline\bibnamedelima E.},
           given_i={J\bibinitperiod\bibinitdelim E\bibinitperiod}}}%
        {{hash=8fab14b8b592580bdcc023c663fd763a}{%
           family={Zimm},
           family_i={Z\bibinitperiod},
           given={Roland},
           given_i={R\bibinitperiod}}}%
        {{hash=85f9f924ebced39ee38cbd9d58b46eca}{%
           family={Cebra-Thomas},
           family_i={C\bibinithyphendelim T\bibinitperiod},
           given={Judith},
           given_i={J\bibinitperiod}}}%
        {{hash=b49930c14843c9c29ca3b3332a59f43a}{%
           family={Lempi\"{a}inen},
           family_i={L\bibinitperiod},
           given={Netta\bibnamedelima K.},
           given_i={N\bibinitperiod\bibinitdelim K\bibinitperiod}}}%
        {{hash=7af5721fb4836deee22739919157e654}{%
           family={Kallonen},
           family_i={K\bibinitperiod},
           given={Aki},
           given_i={A\bibinitperiod}}}%
        {{hash=8c99256247da132d6a68ed03cbedae05}{%
           family={Mitchell},
           family_i={M\bibinitperiod},
           given={Katherine\bibnamedelima L.},
           given_i={K\bibinitperiod\bibinitdelim L\bibinitperiod}}}%
        {{hash=439c0d105cdabc02b03c731db4a25f7b}{%
           family={H\"{a}m\"{a}l\"{a}inen},
           family_i={H\bibinitperiod},
           given={Keijo},
           given_i={K\bibinitperiod}}}%
        {{hash=06af03d1d0fcff6d7ab247dd55bb0660}{%
           family={Salazar-Ciudad},
           family_i={S\bibinithyphendelim C\bibinitperiod},
           given={Isaac},
           given_i={I\bibinitperiod}}}%
        {{hash=429c84748e66c3c19e1c2bad37f48b60}{%
           family={Jernvall},
           family_i={J\bibinitperiod},
           given={Jukka},
           given_i={J\bibinitperiod}}}%
        {{hash=90274fc4ac57b684e562be4c55f214ab}{%
           family={Gilbert},
           family_i={G\bibinitperiod},
           given={Scott\bibnamedelima F.},
           given_i={S\bibinitperiod\bibinitdelim F\bibinitperiod}}}%
      }
      \list{publisher}{1}{%
        {The Company of Biologists Ltd}%
      }
      \strng{namehash}{c1629a311839ae5786d81807d31619fa}
      \strng{fullhash}{3072c8f22f4d401053571cb3e71880ab}
      \field{sortinit}{M}
      \field{sortinithash}{2684bec41e9697b92699b46491061da2}
      \field{labelnamesource}{author}
      \field{labeltitlesource}{title}
      \field{issn}{0950-1991}
      \field{journaltitle}{Development}
      \field{number}{15}
      \field{title}{The origin and loss of periodic patterning in the turtle shell}
      \field{volume}{141}
      \field{year}{2014}
      \field{pages}{3033\bibrangedash 3039}
      \range{pages}{7}
      \verb{doi}
      \verb 10.1242/dev.109041
      \endverb
      \verb{eprint}
      \verb http://dev.biologists.org/content/141/15/3033.full.pdf
      \endverb
      \verb{url}
      \verb http://dev.biologists.org/content/141/15/3033
      \endverb
    \endentry
    \entry{Bone_reilly}{article}{}
      \name{author}{2}{}{%
        {{hash=09afff8be4b4d0c5535f683f5e0b3235}{%
           family={Reilly},
           family_i={R\bibinitperiod},
           given={Donald\bibnamedelima T.},
           given_i={D\bibinitperiod\bibinitdelim T\bibinitperiod}}}%
        {{hash=3b8773b302ea5e17c7e57ba00795be6c}{%
           family={Burstein},
           family_i={B\bibinitperiod},
           given={Albert\bibnamedelima H.},
           given_i={A\bibinitperiod\bibinitdelim H\bibinitperiod}}}%
      }
      \list{language}{1}{%
        {eng}%
      }
      \list{publisher}{1}{%
        {Elsevier Ltd}%
      }
      \strng{namehash}{9ca5ae8921870633c2dbd5c90b874863}
      \strng{fullhash}{9ca5ae8921870633c2dbd5c90b874863}
      \field{sortinit}{R}
      \field{sortinithash}{c7387613477035a752d935acfc3e3ea2}
      \field{labelnamesource}{author}
      \field{labeltitlesource}{title}
      \field{issn}{0021-9290}
      \field{journaltitle}{Journal of Biomechanics}
      \field{number}{6}
      \field{title}{The elastic and ultimate properties of compact bone tissue}
      \field{volume}{8}
      \field{year}{1975}
      \field{pages}{393\bibrangessep IN9\bibrangessep 397\bibrangessep 396\bibrangessep IN11\bibrangessep 405}
      \range{pages}{-1}
      \keyw{Bone and Bones -- Physiology;}
    \endentry
    \entry{krauss}{article}{}
      \name{author}{5}{}{%
        {{hash=025a11de1d20d849d8be3f6c10648e11}{%
           family={Stefanie},
           family_i={S\bibinitperiod},
           given={Krauss},
           given_i={K\bibinitperiod}}}%
        {{hash=4b23fb7d3d3ff319fbdfbabb3fb68378}{%
           family={Efrat},
           family_i={E\bibinitperiod},
           given={Monsonego-Ornan},
           given_i={M\bibinithyphendelim O\bibinitperiod}}}%
        {{hash=68df4fece51efa0196be1b3db623ce4c}{%
           family={Elazar},
           family_i={E\bibinitperiod},
           given={Zelzer},
           given_i={Z\bibinitperiod}}}%
        {{hash=a56bd9a552c3554f9b9f9fa6172a8b81}{%
           family={Peter},
           family_i={P\bibinitperiod},
           given={Fratzl},
           given_i={F\bibinitperiod}}}%
        {{hash=adefd644d6dd963f5695958d1221a899}{%
           family={Ron},
           family_i={R\bibinitperiod},
           given={Shahar},
           given_i={S\bibinitperiod}}}%
      }
      \strng{namehash}{d8dbb130906043620af6d0589928646e}
      \strng{fullhash}{c4375316a122eb80ba98aa07de95a771}
      \field{sortinit}{S}
      \field{sortinithash}{fd1e7c5ab79596b13dbbb67f8d70fb5a}
      \field{labelnamesource}{author}
      \field{labeltitlesource}{title}
      \field{journaltitle}{Advanced Materials}
      \field{number}{4}
      \field{title}{Mechanical Function of a Complex Three-Dimensional Suture Joining the Bony Elements in the Shell of the Red-Eared Slider Turtle}
      \field{volume}{21}
      \field{pages}{407\bibrangedash 412}
      \range{pages}{6}
      \verb{doi}
      \verb 10.1002/adma.200801256
      \endverb
      \verb{eprint}
      \verb https://onlinelibrary.wiley.com/doi/pdf/10.1002/adma.200801256
      \endverb
      \verb{url}
      \verb https://onlinelibrary.wiley.com/doi/abs/10.1002/adma.200801256
      \endverb
      \keyw{Bone,Hierarchical biomaterials,Self-locking materials}
    \endentry
    \entry{ZHANG201270}{article}{}
      \name{author}{5}{}{%
        {{hash=9098b8ce8f31fca55b49e1b872b17f2a}{%
           family={Zhang},
           family_i={Z\bibinitperiod},
           given={Yuming},
           given_i={Y\bibinitperiod}}}%
        {{hash=0ecd5cee7310977b7fac9d1c6891a977}{%
           family={Yao},
           family_i={Y\bibinitperiod},
           given={Haimin},
           given_i={H\bibinitperiod}}}%
        {{hash=25d33d339cde4f7537426ff9f4af1749}{%
           family={Ortiz},
           family_i={O\bibinitperiod},
           given={Christine},
           given_i={C\bibinitperiod}}}%
        {{hash=1e30086f1295afc0960143d05e886f79}{%
           family={Xu},
           family_i={X\bibinitperiod},
           given={Jinquan},
           given_i={J\bibinitperiod}}}%
        {{hash=6b59b520334cb75e2374dd00b6baa2d0}{%
           family={Dao},
           family_i={D\bibinitperiod},
           given={Ming},
           given_i={M\bibinitperiod}}}%
      }
      \strng{namehash}{97dd5ad5717b785d04dab9524ade156f}
      \strng{fullhash}{8c512bb4740637adfeb2e4851246df72}
      \field{sortinit}{Z}
      \field{sortinithash}{fdda4caaa6b5fa63e0c081dcb159543a}
      \field{labelnamesource}{author}
      \field{labeltitlesource}{title}
      \field{issn}{1751-6161}
      \field{journaltitle}{Journal of the Mechanical Behavior of Biomedical Materials}
      \field{title}{Bio-inspired interfacial strengthening strategy through geometrically interlocking designs}
      \field{volume}{15}
      \field{year}{2012}
      \field{pages}{70\bibrangedash 77}
      \range{pages}{8}
      \verb{doi}
      \verb https://doi.org/10.1016/j.jmbbm.2012.07.006
      \endverb
      \verb{url}
      \verb http://www.sciencedirect.com/science/article/pii/S1751616112002019
      \endverb
      \keyw{Biocomposites,Biomimetics,Biomechanics,Biomaterials}
    \endentry
  \endsortlist
\endrefsection
\endinput

