<?xml version="1.0" encoding="UTF-8" standalone="no"?>
<!-- Created with Inkscape (http://www.inkscape.org/) -->

<svg
   xmlns:dc="http://purl.org/dc/elements/1.1/"
   xmlns:cc="http://creativecommons.org/ns#"
   xmlns:rdf="http://www.w3.org/1999/02/22-rdf-syntax-ns#"
   xmlns:svg="http://www.w3.org/2000/svg"
   xmlns="http://www.w3.org/2000/svg"
   xmlns:sodipodi="http://sodipodi.sourceforge.net/DTD/sodipodi-0.dtd"
   xmlns:inkscape="http://www.inkscape.org/namespaces/inkscape"
   width="210mm"
   height="148mm"
   viewBox="0 0 210 148"
   version="1.1"
   id="svg8"
   inkscape:version="0.92.3 (unknown)"
   sodipodi:docname="fourth_model.svg">
  <defs
     id="defs2">
    <inkscape:path-effect
       effect="bspline"
       id="path-effect4178"
       is_visible="true"
       weight="33.333333"
       steps="2"
       helper_size="0"
       apply_no_weight="true"
       apply_with_weight="true"
       only_selected="false" />
    <inkscape:path-effect
       effect="bspline"
       id="path-effect4174"
       is_visible="true"
       weight="33.333333"
       steps="2"
       helper_size="0"
       apply_no_weight="true"
       apply_with_weight="true"
       only_selected="false" />
    <inkscape:path-effect
       effect="bspline"
       id="path-effect4126"
       is_visible="true"
       weight="33.333333"
       steps="2"
       helper_size="0"
       apply_no_weight="true"
       apply_with_weight="true"
       only_selected="false" />
    <inkscape:path-effect
       effect="bspline"
       id="path-effect4122"
       is_visible="true"
       weight="33.333333"
       steps="2"
       helper_size="0"
       apply_no_weight="true"
       apply_with_weight="true"
       only_selected="false" />
    <inkscape:path-effect
       effect="bspline"
       id="path-effect4106"
       is_visible="true"
       weight="33.333333"
       steps="2"
       helper_size="0"
       apply_no_weight="true"
       apply_with_weight="true"
       only_selected="false" />
    <inkscape:path-effect
       effect="bspline"
       id="path-effect4065"
       is_visible="true"
       weight="33.333333"
       steps="2"
       helper_size="0"
       apply_no_weight="true"
       apply_with_weight="true"
       only_selected="false" />
    <inkscape:path-effect
       effect="bspline"
       id="path-effect3950"
       is_visible="true"
       weight="33.333333"
       steps="2"
       helper_size="0"
       apply_no_weight="true"
       apply_with_weight="true"
       only_selected="false" />
    <inkscape:path-effect
       effect="bspline"
       id="path-effect3946"
       is_visible="true"
       weight="33.333333"
       steps="2"
       helper_size="0"
       apply_no_weight="true"
       apply_with_weight="true"
       only_selected="false" />
    <inkscape:path-effect
       effect="spiro"
       id="path-effect3874"
       is_visible="true" />
    <inkscape:path-effect
       effect="bspline"
       id="path-effect3852"
       is_visible="true"
       weight="33.333333"
       steps="2"
       helper_size="0"
       apply_no_weight="true"
       apply_with_weight="true"
       only_selected="false" />
    <inkscape:perspective
       sodipodi:type="inkscape:persp3d"
       inkscape:vp_x="-17.197916 : 172.50149 : 1"
       inkscape:vp_y="0 : 1000 : 0"
       inkscape:vp_z="164.26488 : 223.71726 : 1"
       inkscape:persp3d-origin="105 : 99.000001 : 1"
       id="perspective3803" />
    <inkscape:path-effect
       effect="bspline"
       id="path-effect3781"
       is_visible="true"
       weight="33.333333"
       steps="2"
       helper_size="0"
       apply_no_weight="true"
       apply_with_weight="true"
       only_selected="false" />
    <inkscape:path-effect
       effect="bspline"
       id="path-effect3719"
       is_visible="true"
       weight="33.333333"
       steps="2"
       helper_size="0"
       apply_no_weight="true"
       apply_with_weight="true"
       only_selected="false" />
    <inkscape:path-effect
       effect="bspline"
       id="path-effect3719-3"
       is_visible="true"
       weight="33.333333"
       steps="2"
       helper_size="0"
       apply_no_weight="true"
       apply_with_weight="true"
       only_selected="false" />
    <inkscape:path-effect
       effect="bspline"
       id="path-effect3781-5"
       is_visible="true"
       weight="33.333333"
       steps="2"
       helper_size="0"
       apply_no_weight="true"
       apply_with_weight="true"
       only_selected="false" />
    <inkscape:path-effect
       effect="bspline"
       id="path-effect3852-6"
       is_visible="true"
       weight="33.333333"
       steps="2"
       helper_size="0"
       apply_no_weight="true"
       apply_with_weight="true"
       only_selected="false" />
    <inkscape:path-effect
       effect="spiro"
       id="path-effect3874-9"
       is_visible="true" />
    <inkscape:path-effect
       effect="spiro"
       id="path-effect3874-7"
       is_visible="true" />
    <inkscape:path-effect
       effect="bspline"
       id="path-effect3950-3"
       is_visible="true"
       weight="33.333333"
       steps="2"
       helper_size="0"
       apply_no_weight="true"
       apply_with_weight="true"
       only_selected="false" />
    <inkscape:path-effect
       effect="bspline"
       id="path-effect4065-0"
       is_visible="true"
       weight="33.333333"
       steps="2"
       helper_size="0"
       apply_no_weight="true"
       apply_with_weight="true"
       only_selected="false" />
  </defs>
  <sodipodi:namedview
     id="base"
     pagecolor="#ffffff"
     bordercolor="#666666"
     borderopacity="1.0"
     inkscape:pageopacity="0.0"
     inkscape:pageshadow="2"
     inkscape:zoom="0.70710678"
     inkscape:cx="-104.34874"
     inkscape:cy="547.59936"
     inkscape:document-units="mm"
     inkscape:current-layer="layer1"
     showgrid="false"
     inkscape:window-width="1855"
     inkscape:window-height="1056"
     inkscape:window-x="65"
     inkscape:window-y="24"
     inkscape:window-maximized="1"
     showborder="true"
     inkscape:snap-to-guides="false"
     inkscape:snap-grids="true"
     showguides="false" />
  <metadata
     id="metadata5">
    <rdf:RDF>
      <cc:Work
         rdf:about="">
        <dc:format>image/svg+xml</dc:format>
        <dc:type
           rdf:resource="http://purl.org/dc/dcmitype/StillImage" />
        <dc:title></dc:title>
      </cc:Work>
    </rdf:RDF>
  </metadata>
  <g
     inkscape:label="Layer 1"
     inkscape:groupmode="layer"
     id="layer1"
     transform="translate(0,-149)">
    <g
       id="g4015"
       transform="matrix(1.3281094,0,0,1.1909326,-29.094598,-56.105117)">
      <path
         inkscape:original-d="m 48.62147,230.34355 c 6.385767,-3.96305 34.887545,-9.0255 41.272663,-12.98802 6.385116,-3.96252 14.897887,8.4966 33.404527,12.19546"
         inkscape:path-effect="#path-effect3874"
         inkscape:connector-curvature="0"
         id="path3872"
         d="m 48.62147,230.34355 c 11.594376,-9.1018 26.555432,-13.80987 41.272663,-12.98802 12.007807,0.67055 23.789177,4.97174 33.404527,12.19546"
         style="fill:none;stroke:#000000;stroke-width:0.29287666px;stroke-linecap:butt;stroke-linejoin:miter;stroke-opacity:1"
         sodipodi:nodetypes="csc" />
      <path
         inkscape:original-d="m 53.274795,234.94119 c 5.58991,-3.30879 29.492423,-8.42394 35.081766,-11.73228 5.589333,-3.30834 14.088239,7.98237 30.288409,11.07057"
         inkscape:path-effect="#path-effect3874-9"
         inkscape:connector-curvature="0"
         id="path3872-1"
         d="m 53.274795,234.94119 c 9.772778,-7.95598 22.488996,-12.20862 35.081766,-11.73228 10.918685,0.41302 21.676919,4.34521 30.288409,11.07057"
         style="fill:none;stroke:#000000;stroke-width:0.25038034px;stroke-linecap:butt;stroke-linejoin:miter;stroke-opacity:1"
         sodipodi:nodetypes="csc" />
      <path
         inkscape:connector-curvature="0"
         id="path3894-2"
         d="m 123.29866,229.55099 v 0"
         style="fill:none;stroke:#000000;stroke-width:0.26458332px;stroke-linecap:butt;stroke-linejoin:miter;stroke-opacity:1"
         sodipodi:nodetypes="cc" />
      <path
         inkscape:original-d="m 79.801954,196.46032 c 6.385767,-3.96305 14.16573,-5.9819 20.550846,-9.94442 6.38512,-3.96252 37.01423,7.39694 55.52087,11.0958"
         inkscape:path-effect="#path-effect3874-7"
         inkscape:connector-curvature="0"
         id="path3872-0"
         d="m 79.801954,196.46032 c 6.170701,-4.52563 13.172785,-7.91389 20.550846,-9.94442 18.87148,-5.19366 40.09511,-0.95213 55.52087,11.0958"
         style="fill:none;stroke:#000000;stroke-width:0.29287666px;stroke-linecap:butt;stroke-linejoin:miter;stroke-opacity:1"
         sodipodi:nodetypes="csc" />
      <path
         sodipodi:nodetypes="ccccc"
         inkscape:original-d="m 45.901547,228.93851 c 1.199774,0.0613 2.399086,0.12261 3.597915,0.18387 -0.491602,1.72192 -0.984071,3.44518 -1.47681,5.16772 2.032754,-7.9e-4 4.064806,-0.002 6.0965,-0.002 -0.182051,1.23059 -0.364586,2.46116 -0.547582,3.69169"
         inkscape:path-effect="#path-effect3950"
         inkscape:connector-curvature="0"
         id="path3948"
         d="m 45.901547,228.93851 c 1.199773,0.0613 2.399086,0.1226 2.752477,1.01413 0.353391,0.89153 -0.139075,2.61479 0.631153,3.47579 0.770229,0.861 2.802281,0.86034 3.726868,1.47526 0.924586,0.61493 0.742058,1.8455 0.559525,3.0761"
         style="fill:none;stroke:#000000;stroke-width:0.33404094px;stroke-linecap:butt;stroke-linejoin:miter;stroke-opacity:1" />
      <path
         sodipodi:nodetypes="ccccc"
         inkscape:original-d="m 118.08336,236.97732 c -0.0256,-1.20106 -0.0512,-2.40167 -0.0768,-3.60179 1.75297,0.36578 3.50732,0.73233 5.26099,1.0992 -0.1478,-2.02738 -0.29597,-4.05401 -0.44291,-6.08039 1.24054,0.0926 2.48109,0.18563 3.72163,0.27921"
         inkscape:path-effect="#path-effect3950-3"
         inkscape:connector-curvature="0"
         id="path3948-6"
         d="m 118.08336,236.97732 c -0.0256,-1.20106 -0.0512,-2.40167 0.81243,-2.81861 0.86364,-0.41694 2.618,-0.0504 3.42104,-0.88088 0.80304,-0.83049 0.65541,-2.85716 1.20186,-3.82379 0.54645,-0.96663 1.787,-0.87356 3.02758,-0.78049"
         style="fill:none;stroke:#000000;stroke-width:0.33404094px;stroke-linecap:butt;stroke-linejoin:miter;stroke-opacity:1" />
    </g>
    <path
       style="fill:#ffffff;fill-opacity:1;stroke-width:1.13385828;stroke-miterlimit:4;stroke-dasharray:none;stroke:#000000;stroke-opacity:1"
       d=""
       id="path4130"
       inkscape:connector-curvature="0"
       transform="matrix(0.26458333,0,0,0.26458333,0,149)" />
    <path
       style="fill:none;stroke:#000000;stroke-width:0.26458332px;stroke-linecap:butt;stroke-linejoin:miter;stroke-opacity:1"
       d="m 134.65951,217.27464 c 4.50503,-11.46657 9.00993,-22.9328 16.22055,-29.27225 7.21062,-6.33945 17.12676,-7.55239 27.04263,-8.76529"
       id="path4172"
       inkscape:connector-curvature="0"
       inkscape:path-effect="#path-effect4174"
       inkscape:original-d="m 134.65951,217.27464 c 4.50517,-11.46651 9.01007,-22.93274 13.51471,-34.39873 9.91643,-1.2132 19.83257,-2.42614 29.74847,-3.63881"
       sodipodi:nodetypes="ccc" />
    <path
       style="fill:none;stroke:#000000;stroke-width:0.26458332px;stroke-linecap:butt;stroke-linejoin:miter;stroke-opacity:1"
       d="m 35.480032,218.21853 c 6.489232,-7.57377 12.978214,-15.14725 19.880085,-21.87267 6.901872,-6.72541 14.21659,-12.60282 21.53101,-18.47998"
       id="path4176"
       inkscape:connector-curvature="0"
       inkscape:path-effect="#path-effect4178"
       inkscape:original-d="m 35.480032,218.21853 c 6.489256,-7.57375 12.978237,-15.14723 19.466957,-22.72045 7.314976,-5.87766 14.62969,-11.75507 21.944138,-17.6322"
       sodipodi:nodetypes="ccc" />
    <path
       style="fill:#ffffff;fill-opacity:1;stroke-width:1.13385828;stroke-miterlimit:4;stroke-dasharray:none;stroke:#000000;stroke-opacity:1"
       d=""
       id="path4182"
       inkscape:connector-curvature="0"
       transform="matrix(0.26458333,0,0,0.26458333,0,149)" />
    <path
       style="fill:#ffffff;fill-opacity:1;stroke-width:1.13385828;stroke-miterlimit:4;stroke-dasharray:none;stroke:#000000;stroke-opacity:1"
       d=""
       id="path4190"
       inkscape:connector-curvature="0"
       transform="matrix(0.26458333,0,0,0.26458333,0,149)" />
    <path
       style="fill:none;stroke:#000000;stroke-width:0.26458332px;stroke-linecap:butt;stroke-linejoin:miter;stroke-opacity:1"
       d="m 43.788541,208.36458 12.964583,-10.58334 7.011459,-0.66145 -0.132292,4.7625 -5.754688,5.09323"
       id="path5034"
       inkscape:connector-curvature="0"
       sodipodi:nodetypes="ccccc" />
    <path
       style="fill:none;stroke:#000000;stroke-width:0.26458332px;stroke-linecap:butt;stroke-linejoin:miter;stroke-opacity:1"
       d="m 56.753124,197.78124 v 0 0 0 l -0.597947,-2.41197"
       id="path5036"
       inkscape:connector-curvature="0"
       sodipodi:nodetypes="ccccc" />
    <path
       style="fill:none;stroke:#000000;stroke-width:0.26458332px;stroke-linecap:butt;stroke-linejoin:miter;stroke-opacity:1"
       d="m 63.764583,197.11979 5.423958,-3.175 3.23141,-7.57823 -8.842457,2.11277 -7.422317,6.88994"
       id="path5038"
       inkscape:connector-curvature="0"
       sodipodi:nodetypes="ccccc" />
    <path
       style="fill:none;stroke:#000000;stroke-width:0.26458332px;stroke-linecap:butt;stroke-linejoin:miter;stroke-opacity:1"
       d="m 63.632291,201.88229 6.416146,1.98437 10.252604,-5.02708 10.980208,4.03489 7.739062,-2.77812 7.058959,4.48184 9.16735,-2.99342 5.61266,8.2319"
       id="path5040"
       inkscape:connector-curvature="0" />
    <path
       style="fill:none;stroke:#000000;stroke-width:0.26458332px;stroke-linecap:butt;stroke-linejoin:miter;stroke-opacity:1"
       d="m 69.188541,193.94479 10.715625,-0.79375 0.396875,5.68854"
       id="path5042"
       inkscape:connector-curvature="0" />
    <path
       style="fill:none;stroke:#000000;stroke-width:0.26458332px;stroke-linecap:butt;stroke-linejoin:miter;stroke-opacity:1"
       d="m 79.904166,193.15104 9.128125,-4.36563 9.921874,3.57188 0.06614,7.73906"
       id="path5044"
       inkscape:connector-curvature="0" />
    <path
       style="fill:none;stroke:#000000;stroke-width:0.26458332px;stroke-linecap:butt;stroke-linejoin:miter;stroke-opacity:1"
       d="m 98.954163,192.35729 9.525007,-3.70417 7.01145,4.89479 -0.244,8.03686"
       id="path5046"
       inkscape:connector-curvature="0" />
    <path
       style="fill:none;stroke:#000000;stroke-width:0.26458332px;stroke-linecap:butt;stroke-linejoin:miter;stroke-opacity:1"
       d="m 115.49062,193.54791 10.98132,-2.06593 7.48354,6.54811 -2.99342,8.41899 -10.10278,3.36759"
       id="path5048"
       inkscape:connector-curvature="0" />
    <path
       style="fill:none;stroke:#000000;stroke-width:0.26458332px;stroke-linecap:butt;stroke-linejoin:miter;stroke-opacity:1"
       d="m 130.96206,206.44908 3.69745,10.82556"
       id="path5052"
       inkscape:connector-curvature="0" />
    <path
       style="fill:none;stroke:#000000;stroke-width:0.26458332px;stroke-linecap:butt;stroke-linejoin:miter;stroke-opacity:1"
       d="m 133.95548,198.03009 9.54153,-0.56127"
       id="path5054"
       inkscape:connector-curvature="0" />
    <path
       style="fill:none;stroke:#000000;stroke-width:0.26458332px;stroke-linecap:butt;stroke-linejoin:miter;stroke-opacity:1"
       d="m 89.032291,188.78541 1.331534,-7.78039 11.038235,-3.55469 6.36101,3.55469 0.7161,7.6481"
       id="path5056"
       inkscape:connector-curvature="0" />
    <path
       style="fill:none;stroke:#000000;stroke-width:0.26458332px;stroke-linecap:butt;stroke-linejoin:miter;stroke-opacity:1"
       d="m 107.76307,181.00502 11.41241,-3.74177 7.67064,4.11595 -0.37418,10.10278"
       id="path5058"
       inkscape:connector-curvature="0" />
    <path
       style="fill:none;stroke:#000000;stroke-width:0.26458332px;stroke-linecap:butt;stroke-linejoin:miter;stroke-opacity:1"
       d="m 126.84612,181.3792 12.53494,-4.30304 8.04481,9.54152"
       id="path5060"
       inkscape:connector-curvature="0"
       sodipodi:nodetypes="ccc" />
    <path
       style="fill:none;stroke:#000000;stroke-width:0.26458332px;stroke-linecap:butt;stroke-linejoin:miter;stroke-opacity:1"
       d="m 72.41995,186.36656 9.711976,-6.67116 8.231899,1.30962"
       id="path5062"
       inkscape:connector-curvature="0" />
    <path
       style="fill:none;stroke:#000000;stroke-width:0.26458332px;stroke-linecap:butt;stroke-linejoin:miter;stroke-opacity:1"
       d="m 82.131926,179.6954 2.057974,-4.30304 8.044812,-5.79975 8.044808,1.12253 1.12254,6.73519"
       id="path5064"
       inkscape:connector-curvature="0" />
    <path
       style="fill:none;stroke:#000000;stroke-width:0.26458332px;stroke-linecap:butt;stroke-linejoin:miter;stroke-opacity:1"
       d="m 100.27952,170.71514 9.54153,-5.79975 7.85772,3.55469 1.49671,8.79317"
       id="path5066"
       inkscape:connector-curvature="0" />
    <path
       style="fill:none;stroke:#000000;stroke-width:0.26458332px;stroke-linecap:butt;stroke-linejoin:miter;stroke-opacity:1"
       d="m 117.67877,168.47008 9.9157,-5.23848 8.79317,5.42557 2.99342,8.41899"
       id="path5068"
       inkscape:connector-curvature="0" />
    <path
       style="fill:none;stroke:#000000;stroke-width:0.26458332px;stroke-linecap:butt;stroke-linejoin:miter;stroke-opacity:1"
       d="m 143.49701,197.46882 3.92886,-10.85114"
       id="path5072"
       inkscape:connector-curvature="0"
       sodipodi:nodetypes="cc" />
    <path
       style="fill:none;stroke:#000000;stroke-width:0.26458332px;stroke-linecap:butt;stroke-linejoin:miter;stroke-opacity:1"
       d="m 147.42587,186.61768 v 0 l 7.67063,-6.73519 -0.56126,-9.16735 -7.29646,-5.05139 -10.85114,2.99342"
       id="path5074"
       inkscape:connector-curvature="0" />
    <path
       style="fill:none;stroke:#000000;stroke-width:0.26458332px;stroke-linecap:butt;stroke-linejoin:miter;stroke-opacity:1"
       d="m 154.53524,170.71514 6.92228,-0.18709 4.30304,4.11595 -0.74836,4.86431 -5.79974,3.55468 -4.11596,-3.1805"
       id="path5076"
       inkscape:connector-curvature="0"
       sodipodi:nodetypes="cccccc" />
    <path
       style="fill:none;stroke:#000000;stroke-width:0.26458332px;stroke-linecap:butt;stroke-linejoin:miter;stroke-opacity:1"
       d="m 165.76056,174.644 4.8643,0.18709 2.05798,2.99342 -1.49671,2.43216"
       id="path5078"
       inkscape:connector-curvature="0" />
    <path
       style="fill:none;stroke:#000000;stroke-width:0.26458332px;stroke-linecap:butt;stroke-linejoin:miter;stroke-opacity:1"
       d="m 165.0122,179.50831 v 0 l 2.13903,1.34367"
       id="path5080"
       inkscape:connector-curvature="0"
       sodipodi:nodetypes="ccc" />
    <path
       style="fill:none;stroke:#000000;stroke-width:0.26458332px;stroke-linecap:butt;stroke-linejoin:miter;stroke-opacity:1"
       d="m 172.68284,177.82451 5.23985,1.41259"
       id="path5082"
       inkscape:connector-curvature="0" />
    <path
       style="fill:none;stroke:#000000;stroke-width:0.26458332px;stroke-linecap:butt;stroke-linejoin:miter;stroke-opacity:1"
       d="m 43.788541,208.36458 1.455208,4.10104"
       id="path5084"
       inkscape:connector-curvature="0"
       sodipodi:nodetypes="cc" />
    <path
       style="fill:none;stroke:#000000;stroke-width:0.26458332px;stroke-linecap:butt;stroke-linejoin:miter;stroke-opacity:1"
       d="m 84.1899,175.39236 -7.298775,2.47352"
       id="path5086"
       inkscape:connector-curvature="0" />
    <path
       style="fill:none;stroke:#000000;stroke-width:0.26458332px;stroke-linecap:butt;stroke-linejoin:miter;stroke-opacity:1"
       d="m 45.243749,212.46562 1.15424,7.64093"
       id="path5088"
       inkscape:connector-curvature="0" />
    <path
       style="fill:none;stroke:#000000;stroke-width:0.26458332px;stroke-linecap:butt;stroke-linejoin:miter;stroke-opacity:1"
       d="m 57.877603,206.97552 0.306973,7.33128"
       id="path5090"
       inkscape:connector-curvature="0" />
    <path
       style="fill:none;stroke:#000000;stroke-width:0.26458332px;stroke-linecap:butt;stroke-linejoin:miter;stroke-opacity:1"
       d="m 70.048437,203.86666 -0.451454,7.63381"
       id="path5092"
       inkscape:connector-curvature="0" />
    <path
       style="fill:none;stroke:#000000;stroke-width:0.26458332px;stroke-linecap:butt;stroke-linejoin:miter;stroke-opacity:1"
       d="m 91.281249,202.87447 -0.730335,6.9422"
       id="path5094"
       inkscape:connector-curvature="0" />
    <path
       style="fill:none;stroke:#000000;stroke-width:0.26458332px;stroke-linecap:butt;stroke-linejoin:miter;stroke-opacity:1"
       d="m 106.07927,204.57819 -1.30962,7.10937"
       id="path5096"
       inkscape:connector-curvature="0" />
    <path
       style="fill:none;stroke:#000000;stroke-width:0.26458332px;stroke-linecap:butt;stroke-linejoin:miter;stroke-opacity:1"
       d="m 120.85928,209.81667 -2.80633,7.10937"
       id="path5098"
       inkscape:connector-curvature="0" />
  </g>
</svg>
