\relax 
\abx@aux@sortscheme{nty}
\abx@aux@sortnamekeyscheme{global}
\abx@aux@cite{collagen_gel_tensile}
\abx@aux@cite{Parry_col_mech}
\abx@aux@cite{Indv_col}
\abx@aux@cite{col_mice}
\@writefile{toc}{\boolfalse {citerequest}\boolfalse {citetracker}\boolfalse {pagetracker}\boolfalse {backtracker}\relax }
\@writefile{lof}{\boolfalse {citerequest}\boolfalse {citetracker}\boolfalse {pagetracker}\boolfalse {backtracker}\relax }
\@writefile{lot}{\boolfalse {citerequest}\boolfalse {citetracker}\boolfalse {pagetracker}\boolfalse {backtracker}\relax }
\@writefile{toc}{\contentsline {section}{\numberline {1}Mechanical properties of collagen}{1}}
\@writefile{toc}{\contentsline {subsection}{\numberline {1.1}Tensile Mechanical Properties of Three-Dimensional Type I Collagen Extracellular Matrices With Varied Microstructure \cite {collagen_gel_tensile}}{1}}
\@writefile{toc}{\contentsline {subsection}{\numberline {1.2}The Molecular and Fibrillar Structure of Collagen and its Relationship to the Mechanical Properties of Connective Tissue \cite {Parry_col_mech}}{1}}
\@writefile{toc}{\contentsline {subsection}{\numberline {1.3}Stress-strain Experiments on Individual Collagen Fibrils \cite {Indv_col}}{1}}
\@writefile{lof}{\contentsline {figure}{\numberline {1}{\ignorespaces Screenshot from \cite {collagen_gel_tensile}\relax }}{2}}
\providecommand*\caption@xref[2]{\@setref\relax\@undefined{#1}}
\newlabel{fig:gel_ss}{{1}{2}}
\@writefile{toc}{\contentsline {subsection}{\numberline {1.4}Strain-rate sensitive mechanical properties of tendon fascicles from mice with genetically engineered alterations in collagen and decorin \cite {col_mice}}{2}}
\@writefile{lof}{\contentsline {figure}{\numberline {2}{\ignorespaces Screenshot of figure from \cite {Indv_col}\relax }}{3}}
\newlabel{fig:cyclic_fibril}{{2}{3}}
\@writefile{lof}{\contentsline {figure}{\numberline {3}{\ignorespaces Screeenshot from \cite {col_mice}\relax }}{4}}
\newlabel{fig:mice_groups}{{3}{4}}
\@writefile{lof}{\contentsline {figure}{\numberline {4}{\ignorespaces Screeenshot from \cite {col_mice}. Reported to be `typical' non-linear stress-strain behaviour for soft tissue. Qualitatively similar to 1\hbox {}\relax }}{4}}
\newlabel{fig:mice_stress_strain}{{4}{4}}
\abx@aux@cite{ScutesMoustakas-Verho}
\@writefile{lof}{\contentsline {figure}{\numberline {5}{\ignorespaces Screeenshot from \cite {col_mice}.\relax }}{5}}
\newlabel{fig:mice_fast}{{5}{5}}
\@writefile{toc}{\contentsline {subsection}{\numberline {1.5}Questions that must still be answered}{5}}
\@writefile{toc}{\contentsline {section}{\numberline {2}Structure of the shell}{5}}
\@writefile{lof}{\contentsline {figure}{\numberline {6}{\ignorespaces Screeenshot from \cite {col_mice}.\relax }}{6}}
\newlabel{fig:mice_time_dependence}{{6}{6}}
\abx@aux@cite{MechPropertiesAcharai}
\@writefile{lof}{\contentsline {figure}{\numberline {7}{\ignorespaces Image of a turtle skeleton from beneath\relax }}{7}}
\newlabel{fig:bone_base}{{7}{7}}
\newlabel{fig:live_shell}{{8a}{7}}
\newlabel{sub@fig:live_shell}{{(a)}{a}}
\newlabel{fig:dry_shell}{{8b}{7}}
\newlabel{sub@fig:dry_shell}{{(b)}{b}}
\@writefile{lof}{\contentsline {figure}{\numberline {8}{\ignorespaces Images of turtle shells with and without keratin layers respectively\relax }}{7}}
\newlabel{fig:shells}{{8}{7}}
\@writefile{lof}{\contentsline {subfigure}{\numberline{(a)}{\ignorespaces {Turtule shell with keratin layer}}}{7}}
\@writefile{lof}{\contentsline {subfigure}{\numberline{(b)}{\ignorespaces {Bone of tortoise shell}}}{7}}
\@writefile{toc}{\contentsline {subsection}{\numberline {2.1}Internal bone morphology}{7}}
\@writefile{lof}{\contentsline {figure}{\numberline {9}{\ignorespaces Taken from \cite {MechPropertiesAcharai}\relax }}{8}}
\newlabel{fig:bone_morph}{{9}{8}}
\@writefile{toc}{\contentsline {subsection}{\numberline {2.2}Bone plate - suture morphology}{8}}
\@writefile{lof}{\contentsline {figure}{\numberline {10}{\ignorespaces Taken from \cite {MechPropertiesAcharai}\relax }}{8}}
\newlabel{fig:bone-suture}{{10}{8}}
\abx@aux@cite{MechPropRhee}
\@writefile{toc}{\contentsline {section}{\numberline {3}Mechanical Properties of the shell}{9}}
\@writefile{lof}{\contentsline {figure}{\numberline {11}{\ignorespaces Taken from \cite {MechPropertiesAcharai}\relax }}{9}}
\newlabel{fig:mech_prop}{{11}{9}}
\@writefile{lof}{\contentsline {figure}{\numberline {12}{\ignorespaces Taken from \cite {MechPropertiesAcharai}\relax }}{9}}
\newlabel{fig:ani}{{12}{9}}
\abx@aux@cite{keratinProp}
\@writefile{lof}{\contentsline {figure}{\numberline {13}{\ignorespaces Taken from \cite {MechPropRhee}\relax }}{10}}
\newlabel{fig:stress_strain}{{13}{10}}
\@writefile{lof}{\contentsline {figure}{\numberline {14}{\ignorespaces Taken from \cite {MechPropRhee}\relax }}{10}}
\newlabel{fig:bend_test}{{14}{10}}
\abx@aux@cite{bioInterlocking}
\abx@aux@cite{lizSkull}
\@writefile{lof}{\contentsline {figure}{\numberline {15}{\ignorespaces Taken from \cite {keratinProp}\relax }}{11}}
\newlabel{fig:keratin_test}{{15}{11}}
\@writefile{toc}{\contentsline {section}{\numberline {4}Mechanical benefits of sutures}{11}}
